{
  "_links": {
    "first": {
      "href": "https://host/cnwlcm/v1/workload_instances?page=1&size=2&sort=workloadInstanceId,desc"
    },
    "prev": {
      "href": "https://host/cnwlcm/v1/workload_instances?page=1&size=2&sort=workloadInstanceId,desc"
    },
    "self": {
      "href": "https://host/cnwlcm/v1/workload_instances?page=2&size=2&sort=workloadInstanceId,desc"
    },
    "next": {
      "href": "https://host/cnwlcm/v1/workload_instances?page=3&size=2&sort=workloadInstanceId,desc"
    },
    "last": {
      "href": "https://host/cnwlcm/v1/workload_instances?page=5&size=2&sort=workloadInstanceId,desc"
    }
  },
  "_page": {
    "number": 2,
    "size": 2,
    "totalPages": 5,
    "totalElements": 9
  },
  "content":
  [
    {
      "workloadInstanceId": "secondId",
      "workloadInstanceName": "name",
      "namespace": "namespace",
      "cluster": "cluster",
      "additionalParameters": {
        "testKey": "testValue"
      }
    },
    {
      "workloadInstanceId": "firstId",
      "workloadInstanceName": "name",
      "namespace": "namespace",
      "cluster": "cluster",
      "additionalParameters": {
        "testKey": "testValue"
      }
    }
  ]
}